{
  "photos": {
    "page": 1,
    "pages": 4,
    "perpage": 5,
    "total": "20",
    "photo": [
      {
        "id": "15829868095",
        "owner": "60266598@N04",
        "secret": "9b3d9279dd",
        "server": "5604",
        "farm": 6,
        "title": "morning",
        "ispublic": 1,
        "isfriend": 0,
        "isfamily": 0,
        "latitude": "0.000000",
        "longitude": "0.000000",
        "accuracy": "16",
        "context": 0,
        "geo_is_family": 0,
        "geo_is_friend": 0,
        "geo_is_contact": 0,
        "geo_is_public": 1,
        "url_s": "https:\/\/farm6.staticflickr.com\/5604\/15829868095_9b3d9279dd_m.jpg",
        "height_s": "236",
        "width_s": "240"
      },
      {
        "id": "15174077233",
        "owner": "60266598@N04",
        "secret": "2b0c87248a",
        "server": "7543",
        "farm": 8,
        "title": "Boys",
        "ispublic": 1,
        "isfriend": 0,
        "isfamily": 0,
        "latitude": "0.000000",
        "longitude": "0.000000",
        "accuracy": "16",
        "context": 0,
        "geo_is_family": 0,
        "geo_is_friend": 0,
        "geo_is_contact": 0,
        "geo_is_public": 1,
        "url_s": "https:\/\/farm8.staticflickr.com\/7543\/15174077233_2b0c87248a_m.jpg",
        "height_s": "236",
        "width_s": "240"
      },
      {
        "id": "9564095997",
        "owner": "58235747@N02",
        "secret": "a1d2345ee0",
        "server": "3688",
        "farm": 4,
        "title": "IMAGE_D21DDF6A-7FBB-4DB8-A8E3-CDDD2D83FC70.JPG",
        "ispublic": 1,
        "isfriend": 0,
        "isfamily": 0,
        "latitude": "0.000000",
        "longitude": "0.000000",
        "accuracy": "16",
        "context": 0,
        "geo_is_family": 0,
        "geo_is_friend": 0,
        "geo_is_contact": 0,
        "geo_is_public": 1,
        "url_s": "https:\/\/farm4.staticflickr.com\/3688\/9564095997_a1d2345ee0_m.jpg",
        "height_s": "180",
        "width_s": "240"
      },
      {
        "id": "9553921765",
        "owner": "58235747@N02",
        "secret": "e6833c4de1",
        "server": "5453",
        "farm": 6,
        "title": "IMAGE_E42B94B4-C570-4236-B485-F685B4AAC613.JPG",
        "ispublic": 1,
        "isfriend": 0,
        "isfamily": 0,
        "latitude": "0.000000",
        "longitude": "0.000000",
        "accuracy": "16",
        "context": 0,
        "geo_is_family": 0,
        "geo_is_friend": 0,
        "geo_is_contact": 0,
        "geo_is_public": 1,
        "url_s": "https:\/\/farm6.staticflickr.com\/5453\/9553921765_e6833c4de1_m.jpg",
        "height_s": "180",
        "width_s": "240"
      },
      {
        "id": "9553890497",
        "owner": "58235747@N02",
        "secret": "b3e37de13d",
        "server": "7339",
        "farm": 8,
        "title": "IMAGE_1FEAEC63-33B7-4D8F-863D-14370B9FA642.JPG",
        "ispublic": 1,
        "isfriend": 0,
        "isfamily": 0,
        "latitude": "0.000000",
        "longitude": "0.000000",
        "accuracy": "16",
        "context": 0,
        "geo_is_family": 0,
        "geo_is_friend": 0,
        "geo_is_contact": 0,
        "geo_is_public": 1,
        "url_s": "https:\/\/farm8.staticflickr.com\/7339\/9553890497_b3e37de13d_m.jpg",
        "height_s": "180",
        "width_s": "240"
      }
    ]
  },
  "stat": "ok"
}
