{
  "photos": {
    "page": 1,
    "pages": 1986,
    "perpage": 250,
    "total": "496270",
    "photo": [
      {
        "id": "41681227201",
        "owner": "49342011@N00",
        "secret": "1aa55c9586",
        "server": "827",
        "farm": 1,
        "title": "Sunrise looking east",
        "ispublic": 1,
        "isfriend": 0,
        "isfamily": 0,
        "latitude": "-37.805257",
        "longitude": "144.953023",
        "accuracy": "16",
        "context": 0,
        "place_id": "0FOJX31WULi_B.Gc",
        "woeid": "7226200",
        "geo_is_family": 0,
        "geo_is_friend": 0,
        "geo_is_contact": 0,
        "geo_is_public": 1,
        "url_s": "https:\/\/farm1.staticflickr.com\/827\/41681227201_1aa55c9586_m.jpg",
        "height_s": "160",
        "width_s": "240"
      },
      {
        "id": "41678104021",
        "owner": "22736422@N03",
        "secret": "0c20deed64",
        "server": "910",
        "farm": 1,
        "title": "Leroy",
        "ispublic": 1,
        "isfriend": 0,
        "isfamily": 0,
        "latitude": "51.546237",
        "longitude": "-0.103948",
        "accuracy": "0",
        "context": 0,
        "place_id": "Hx9dAH9TUbnY7w",
        "woeid": "23301",
        "geo_is_family": 0,
        "geo_is_friend": 0,
        "geo_is_contact": 0,
        "geo_is_public": 1,
        "url_s": "https:\/\/farm1.staticflickr.com\/910\/41678104021_0c20deed64_m.jpg",
        "height_s": "160",
        "width_s": "240"
      },
      {
        "id": "27809178898",
        "owner": "67572102@N05",
        "secret": "26a5f3b0be",
        "server": "965",
        "farm": 1,
        "title": "Ha Long bay, Vietnam",
        "ispublic": 1,
        "isfriend": 0,
        "isfamily": 0,
        "latitude": "20.898187",
        "longitude": "107.069256",
        "accuracy": "16",
        "context": 0,
        "place_id": "dDQGEr9YU7Lo8CLxVg",
        "woeid": "91877840",
        "geo_is_family": 0,
        "geo_is_friend": 0,
        "geo_is_contact": 0,
        "geo_is_public": 1,
        "url_s": "https:\/\/farm1.staticflickr.com\/965\/27809178898_26a5f3b0be_m.jpg",
        "height_s": "240",
        "width_s": "160"
      },
      {
        "id": "26810259547",
        "owner": "145749787@N08",
        "secret": "44e7db1358",
        "server": "958",
        "farm": 1,
        "title": "Chained - Bristol, England",
        "ispublic": 1,
        "isfriend": 0,
        "isfamily": 0,
        "latitude": "51.452295",
        "longitude": "-2.591400",
        "accuracy": "10",
        "context": 0,
        "place_id": "dnJp7MJTUrpwbc3FhA",
        "woeid": "20094207",
        "geo_is_family": 0,
        "geo_is_friend": 0,
        "geo_is_contact": 0,
        "geo_is_public": 1,
        "url_s": "https:\/\/farm1.staticflickr.com\/958\/26810259547_44e7db1358_m.jpg",
        "height_s": "160",
        "width_s": "240"
      },
      {
        "id": "27807504448",
        "owner": "55378459@N07",
        "secret": "7fbee573fa",
        "server": "952",
        "farm": 1,
        "title": "Royal Princess Sailaway",
        "ispublic": 1,
        "isfriend": 0,
        "isfamily": 0,
        "latitude": "12.149829",
        "longitude": "-68.277958",
        "accuracy": "16",
        "context": 0,
        "place_id": "5dTFsh1QV7gUSIs",
        "woeid": "152006",
        "geo_is_family": 0,
        "geo_is_friend": 0,
        "geo_is_contact": 0,
        "geo_is_public": 1,
        "url_s": "https:\/\/farm1.staticflickr.com\/952\/27807504448_7fbee573fa_m.jpg",
        "height_s": "130",
        "width_s": "240"
      },
      {
        "id": "40785666735",
        "owner": "18215054@N06",
        "secret": "790bb38ea0",
        "server": "957",
        "farm": 1,
        "title": "Prison in Scheveningen",
        "ispublic": 1,
        "isfriend": 0,
        "isfamily": 0,
        "latitude": "52.108844",
        "longitude": "4.302831",
        "accuracy": "16",
        "context": 0,
        "place_id": "zUHRB5pWULLaEds",
        "woeid": "728918",
        "geo_is_family": 0,
        "geo_is_friend": 0,
        "geo_is_contact": 0,
        "geo_is_public": 1,
        "url_s": "https:\/\/farm1.staticflickr.com\/957\/40785666735_790bb38ea0_m.jpg",
        "height_s": "165",
        "width_s": "240"
      },
      {
        "id": "41675490831",
        "owner": "55378459@N07",
        "secret": "2e6eb7a021",
        "server": "969",
        "farm": 1,
        "title": "The sail by",
        "ispublic": 1,
        "isfriend": 0,
        "isfamily": 0,
        "latitude": "12.149766",
        "longitude": "-68.311185",
        "accuracy": "13",
        "context": 0,
        "place_id": "rmT5ydhQUL.YLbupFQ",
        "woeid": "12515137",
        "geo_is_family": 0,
        "geo_is_friend": 0,
        "geo_is_contact": 0,
        "geo_is_public": 1,
        "url_s": "https:\/\/farm1.staticflickr.com\/969\/41675490831_2e6eb7a021_m.jpg",
        "height_s": "130",
        "width_s": "240"
      },
      {
        "id": "40785526875",
        "owner": "55378459@N07",
        "secret": "8bb86b39cc",
        "server": "947",
        "farm": 1,
        "title": "Klein Bonaire",
        "ispublic": 1,
        "isfriend": 0,
        "isfamily": 0,
        "latitude": "12.158241",
        "longitude": "-68.308181",
        "accuracy": "13",
        "context": 0,
        "place_id": "5dTFsh1QV7gUSIs",
        "woeid": "152006",
        "geo_is_family": 0,
        "geo_is_friend": 0,
        "geo_is_contact": 0,
        "geo_is_public": 1,
        "url_s": "https:\/\/farm1.staticflickr.com\/947\/40785526875_8bb86b39cc_m.jpg",
        "height_s": "130",
        "width_s": "240"
      }]}}
